Tipos de interés
…
ANÁLISIS EXPLORATORIO

Transformaciones pertinentes para esta parte dentro de la base de datos

library(reshape2)

TIUSD2 = TIUSD[complete.cases(TIUSD), ]
TIUSD2$Fechas = as.Date(TIUSD2$X1, format = "%d/%m/%Y")

TIUSD2=TIUSD2[,2:12]
TIUSD2

## # A tibble: 783 x 11
##    `DEPO 1M` `DEPO 3M` `DEPO 6M` `DEPO 12M` `IRS 2Y` `IRS 3Y` `IRS 4Y` `IRS 5Y`
##        <dbl>     <dbl>     <dbl>      <dbl>    <dbl>    <dbl>    <dbl>    <dbl>
##  1      6         6.5       7          7.75     8.17     8.24     8.25     8.22
##  2      5.94      6.5       7          7.81     8.22     8.28     8.29     8.29
##  3      5.94      6.5       7          7.81     8.13     8.2      8.23     8.24
##  4      5.90      6.44      6.94       7.69     8.14     8.22     8.26     8.27
##  5      5.88      6.44      6.94       7.69     8.07     8.2      8.25     8.27
##  6      5.88      6.38      6.88       7.69     8.14     8.25     8.29     8.31
##  7      5.88      6.38      6.88       7.69     8.09     8.21     8.25     8.25
##  8      5.88      6.34      6.88       7.62     8.07     8.2      8.23     8.24
##  9      5.81      6.25      6.76       7.56     8.02     8.15     8.19     8.22
## 10      5.81      6.25      6.75       7.52     7.8      7.96     8.03     8.05
## # ... with 773 more rows, and 3 more variables: `IRS 7Y` <dbl>, `IRS
## #   10Y` <dbl>, Fechas <date>
…
